Exploring Zillow Real Estate Data: Introduction to realEstAnalytics
…
GetDeepSearchResults_dataframe(.df=newtonaddresses,
                               col.address=1 , col.zipcode=2 , col.city=3 , col.state=4,
                               api_key=getOption('ZillowR-zws_id'))
#> # A tibble: 37 x 26
#>    address zipcode city  state   lat  long region_name region_id type 
#>    <chr>   <chr>   <chr> <chr> <dbl> <dbl> <chr>       <chr>     <chr>
#>  1 605 S ~ 67114   Newt~ KS     38.0 -97.3 Newton      19619     city 
#>  2 441 Me~ 67114   Newt~ KS     38.0 -97.4 Newton      19619     city 
#>  3 612 Qu~ 67114   Newt~ KS     38.0 -97.3 Newton      19619     city 
#>  4 601 St~ 67114   Newt~ KS     38.0 -97.3 Newton      19619     city 
#>  5 600 S ~ 67114   Newt~ KS     38.0 -97.3 Newton      19619     city 
#>  6 121 S ~ 67062   Hess~ KS     38.1 -97.4 Hesston     52496     city 
#>  7 506 Au~ 67114   Newt~ KS     38.0 -97.3 Newton      19619     city 
#>  8 105 S ~ 67114   Newt~ KS     38.0 -97.3 Newton      19619     city 
#>  9 321 E ~ 67062   Hess~ KS     38.1 -97.4 Hesston     52496     city 
#> 10 618 Au~ 67114   Newt~ KS     38.0 -97.3 Newton      19619     city 
#> # ... with 27 more rows, and 17 more variables: zestimate <dbl>,
#> #   zest_lastupdated <date>, zest_monthlychange <dbl>,
#> #   zest_percentile <dbl>, zestimate_low <dbl>, zestimate_high <dbl>,
#> #   zpid <chr>, bathrooms <dbl>, bedrooms <dbl>, finishedSqFt <dbl>,
#> #   lastSoldDate <chr>, lastSoldPrice <dbl>, lotSizeSqFt <dbl>,
#> #   taxAssessment <dbl>, taxAssessmentYear <dbl>, totalRooms <dbl>,
#> #   yearBuilt <dbl>
…
